…
Using `import_ssfftracks()` we can bulk extract all these measures from
the segments in `seg_list` into a single data frame. I set `proc=FALSE`,
because right now we just want to extract the raw measures. `verbose` is
set to `FALSE` to avoid printing progress bars that look ugly on GitHub.

``` r
x <- import_ssfftracks(db_handle=raw, seg_list=seg_list, proc=FALSE, verbose=FALSE)
x
#> # A tibble: 2,823 × 43
#>    sl_rowIdx labels start   end db_uuid     session bundle speaker repet…¹ word 
#>        <int> <chr>  <dbl> <dbl> <chr>       <chr>   <chr>  <chr>   <chr>   <chr>
#>  1         1 cl     1134. 1235. 33157d9f-4… f1      F1-00… EF1     1       bOh  
#>  2         1 cl     1134. 1235. 33157d9f-4… f1      F1-00… EF1     1       bOh  
#>  3         1 cl     1134. 1235. 33157d9f-4… f1      F1-00… EF1     1       bOh  
#>  4         1 cl     1134. 1235. 33157d9f-4… f1      F1-00… EF1     1       bOh  
#>  5         1 cl     1134. 1235. 33157d9f-4… f1      F1-00… EF1     1       bOh  
#>  6         1 cl     1134. 1235. 33157d9f-4… f1      F1-00… EF1     1       bOh  
#>  7         1 cl     1134. 1235. 33157d9f-4… f1      F1-00… EF1     1       bOh  
#>  8         1 cl     1134. 1235. 33157d9f-4… f1      F1-00… EF1     1       bOh  
#>  9         1 cl     1134. 1235. 33157d9f-4… f1      F1-00… EF1     1       bOh  
#> 10         1 cl     1134. 1235. 33157d9f-4… f1      F1-00… EF1     1       bOh  
#> # … with 2,813 more rows, 33 more variables: start_item_id <int>,
#> #   end_item_id <int>, level <chr>, attribute <chr>, start_item_seq_idx <int>,
#> #   end_item_seq_idx <int>, type <chr>, sample_start <int>, sample_end <int>,
#> #   sample_rate <int>, ov <dbl>, cv <dbl>, rv <dbl>, onset <chr>, vowel <chr>,
#> #   coda <chr>, template <chr>, presyllable <chr>, register <chr>,
#> #   times_orig <dbl>, times_rel <dbl>, times_norm <dbl>, praatF0 <dbl>,
#> #   eggF0 <dbl>, H1H2c <dbl>, H1A1c <dbl>, H1A3c <dbl>, CPP <dbl>, …
…
                       fndep=list(c('H1A1c', 'F1'), c('H1A3c', 'F3')),
                       speaker='speaker', group_var=c('speaker', 'vowel'),
                       timing_rm=list('cl', 250), outlier_rm='eggF0',
                       verbose=FALSE)
#> [1] "Initial number of NAs in F0 track: 502"
#> [1] "Number of NAs removed from F0 track during automated outlier removal: 4"
#> [1] "Number of NAs removed from H1H2c track during automated outlier removal: 506"
#> [1] "Number of NAs removed from F1 track during automated outlier removal: 45"
#> [1] "Number of NAs removed from F2 track during automated outlier removal: 24"
#> [1] "Number of NAs removed from F3 track during automated outlier removal: 23"
#> [1] "Number of NAs removed from H1A1c track during automated outlier removal: 526"
#> [1] "Number of NAs removed from H1A3c track during automated outlier removal: 521"
#> [1] "Number of NAs removed from eggF0 track during automated outlier removal: 15"
y
#> # A tibble: 2,823 × 73
#>    sl_rowIdx labels start   end db_uuid     session bundle speaker repet…¹ word 
#>        <int> <chr>  <dbl> <dbl> <chr>       <chr>   <chr>  <chr>   <chr>   <chr>
#>  1         1 cl     1134. 1235. 33157d9f-4… f1      F1-00… EF1     1       bOh  
#>  2         1 cl     1134. 1235. 33157d9f-4… f1      F1-00… EF1     1       bOh  
#>  3         1 cl     1134. 1235. 33157d9f-4… f1      F1-00… EF1     1       bOh  
#>  4         1 cl     1134. 1235. 33157d9f-4… f1      F1-00… EF1     1       bOh  
#>  5         1 cl     1134. 1235. 33157d9f-4… f1      F1-00… EF1     1       bOh  
#>  6         1 cl     1134. 1235. 33157d9f-4… f1      F1-00… EF1     1       bOh  
#>  7         1 cl     1134. 1235. 33157d9f-4… f1      F1-00… EF1     1       bOh  
#>  8         1 cl     1134. 1235. 33157d9f-4… f1      F1-00… EF1     1       bOh  
#>  9         1 cl     1134. 1235. 33157d9f-4… f1      F1-00… EF1     1       bOh  
#> 10         1 cl     1134. 1235. 33157d9f-4… f1      F1-00… EF1     1       bOh  
#> # … with 2,813 more rows, 63 more variables: start_item_id <int>,
#> #   end_item_id <int>, level <chr>, attribute <chr>, start_item_seq_idx <int>,
#> #   end_item_seq_idx <int>, type <chr>, sample_start <int>, sample_end <int>,
#> #   sample_rate <int>, ov <dbl>, cv <dbl>, rv <dbl>, onset <chr>, vowel <chr>,
#> #   coda <chr>, template <chr>, presyllable <chr>, register <chr>,
#> #   times_orig <dbl>, times_rel <dbl>, times_norm <dbl>, eggF0 <dbl>,
#> #   H1H2c <dbl>, H1A1c <dbl>, H1A3c <dbl>, CPP <dbl>, CQ_PH <dbl>, …
…
